﻿KEY_VALUE	GROUP_VALUE
and	
co	
corp	
inc	
ltd	
pvt	
service	
unltd	
a de c v	
b b q	
b h d	
b v	
b v b a	
bbq	
bhd	
bqps	
bv ba	
bvba	
c v	
co	
co l l c	
co llc	
co w l l	
cv	
d e c v	
dc	
dds	
de cv	
de rl de cv	
decv	
e i r l	
esq	
f b o	
g m b h	
gmbh	
kft	
l de c v	
l l c	
l l p	
l lc	
l lp	
lda	
llc	
llp	
lmt	
lpa	
md pa	
of	
p llc	
phd	
plc	
pll	
pllc	
ppd	
pte	
pte ltd	
pty	
pty ltd	
qae	
qpe	
qps	
r l de c v	
rl de cv	
s a c	
s a de c v	
s a r l	
s a s	
s de r l	
s de rl de cv	
s r l	
sa de cv	
sa rl	
sarl	
sp z o o	
sprl	
svc	
svcs	
the	
lp	